Proyecto Final - Procesador CISC 68HC11/simulation/qsim/m68hc11.msim.vcd
$comment
	File created using the following command:
		vcd file m68hc11.msim.vcd -direction
$end
$date
	Sat May 30 02:45:39 2020
$end
$version
	ModelSim Version 10.5b
$end
$timescale
	1ps
$end

$scope module bin_bcd_vhd_vec_tst $end
$var wire 1 ! BIN [7] $end
$var wire 1 " BIN [6] $end
$var wire 1 # BIN [5] $end
$var wire 1 $ BIN [4] $end
$var wire 1 % BIN [3] $end
$var wire 1 & BIN [2] $end
$var wire 1 ' BIN [1] $end
$var wire 1 ( BIN [0] $end
$var wire 1 ) Cen [3] $end
$var wire 1 * Cen [2] $end
$var wire 1 + Cen [1] $end
$var wire 1 , Cen [0] $end
$var wire 1 - CM [3] $end
$var wire 1 . CM [2] $end
$var wire 1 / CM [1] $end
$var wire 1 0 CM [0] $end
$var wire 1 1 Dec [3] $end
$var wire 1 2 Dec [2] $end
$var wire 1 3 Dec [1] $end
$var wire 1 4 Dec [0] $end
$var wire 1 5 DM [3] $end
$var wire 1 6 DM [2] $end
$var wire 1 7 DM [1] $end
$var wire 1 8 DM [0] $end
$var wire 1 9 UM [3] $end
$var wire 1 : UM [2] $end
$var wire 1 ; UM [1] $end
$var wire 1 < UM [0] $end
$var wire 1 = Unid [3] $end
$var wire 1 > Unid [2] $end
$var wire 1 ? Unid [1] $end
$var wire 1 @ Unid [0] $end

$scope module i1 $end
$var wire 1 A gnd $end
$var wire 1 B vcc $end
$var wire 1 C unknown $end
$var wire 1 D devoe $end
$var wire 1 E devclrn $end
$var wire 1 F devpor $end
$var wire 1 G ww_devoe $end
$var wire 1 H ww_devclrn $end
$var wire 1 I ww_devpor $end
$var wire 1 J ww_BIN [7] $end
$var wire 1 K ww_BIN [6] $end
$var wire 1 L ww_BIN [5] $end
$var wire 1 M ww_BIN [4] $end
$var wire 1 N ww_BIN [3] $end
$var wire 1 O ww_BIN [2] $end
$var wire 1 P ww_BIN [1] $end
$var wire 1 Q ww_BIN [0] $end
$var wire 1 R ww_CM [3] $end
$var wire 1 S ww_CM [2] $end
$var wire 1 T ww_CM [1] $end
$var wire 1 U ww_CM [0] $end
$var wire 1 V ww_DM [3] $end
$var wire 1 W ww_DM [2] $end
$var wire 1 X ww_DM [1] $end
$var wire 1 Y ww_DM [0] $end
$var wire 1 Z ww_UM [3] $end
$var wire 1 [ ww_UM [2] $end
$var wire 1 \ ww_UM [1] $end
$var wire 1 ] ww_UM [0] $end
$var wire 1 ^ ww_Cen [3] $end
$var wire 1 _ ww_Cen [2] $end
$var wire 1 ` ww_Cen [1] $end
$var wire 1 a ww_Cen [0] $end
$var wire 1 b ww_Dec [3] $end
$var wire 1 c ww_Dec [2] $end
$var wire 1 d ww_Dec [1] $end
$var wire 1 e ww_Dec [0] $end
$var wire 1 f ww_Unid [3] $end
$var wire 1 g ww_Unid [2] $end
$var wire 1 h ww_Unid [1] $end
$var wire 1 i ww_Unid [0] $end
$var wire 1 j \CM[0]~output_o\ $end
$var wire 1 k \CM[1]~output_o\ $end
$var wire 1 l \CM[2]~output_o\ $end
$var wire 1 m \CM[3]~output_o\ $end
$var wire 1 n \DM[0]~output_o\ $end
$var wire 1 o \DM[1]~output_o\ $end
$var wire 1 p \DM[2]~output_o\ $end
$var wire 1 q \DM[3]~output_o\ $end
$var wire 1 r \UM[0]~output_o\ $end
$var wire 1 s \UM[1]~output_o\ $end
$var wire 1 t \UM[2]~output_o\ $end
$var wire 1 u \UM[3]~output_o\ $end
$var wire 1 v \Cen[0]~output_o\ $end
$var wire 1 w \Cen[1]~output_o\ $end
$var wire 1 x \Cen[2]~output_o\ $end
$var wire 1 y \Cen[3]~output_o\ $end
$var wire 1 z \Dec[0]~output_o\ $end
$var wire 1 { \Dec[1]~output_o\ $end
$var wire 1 | \Dec[2]~output_o\ $end
$var wire 1 } \Dec[3]~output_o\ $end
$var wire 1 ~ \Unid[0]~output_o\ $end
$var wire 1 !! \Unid[1]~output_o\ $end
$var wire 1 "! \Unid[2]~output_o\ $end
$var wire 1 #! \Unid[3]~output_o\ $end
$var wire 1 $! \BIN[7]~input_o\ $end
$var wire 1 %! \BIN[4]~input_o\ $end
$var wire 1 &! \BIN[6]~input_o\ $end
$var wire 1 '! \BIN[5]~input_o\ $end
$var wire 1 (! \registro~10_combout\ $end
$var wire 1 )! \BIN[3]~input_o\ $end
$var wire 1 *! \registro~11_combout\ $end
$var wire 1 +! \registro~12_combout\ $end
$var wire 1 ,! \registro~29_combout\ $end
$var wire 1 -! \registro~13_combout\ $end
$var wire 1 .! \registro~14_combout\ $end
$var wire 1 /! \LessThan0~0_combout\ $end
$var wire 1 0! \registro~15_combout\ $end
$var wire 1 1! \LessThan3~0_combout\ $end
$var wire 1 2! \LessThan3~1_combout\ $end
$var wire 1 3! \registro~16_combout\ $end
$var wire 1 4! \BIN[2]~input_o\ $end
$var wire 1 5! \registro~17_combout\ $end
$var wire 1 6! \registro~18_combout\ $end
$var wire 1 7! \registro~30_combout\ $end
$var wire 1 8! \Add5~0_combout\ $end
$var wire 1 9! \registro~19_combout\ $end
$var wire 1 :! \registro~20_combout\ $end
$var wire 1 ;! \BIN[1]~input_o\ $end
$var wire 1 <! \registro~21_combout\ $end
$var wire 1 =! \registro~22_combout\ $end
$var wire 1 >! \registro~23_combout\ $end
$var wire 1 ?! \registro~24_combout\ $end
$var wire 1 @! \registro~6_combout\ $end
$var wire 1 A! \registro~4_combout\ $end
$var wire 1 B! \registro~3_combout\ $end
$var wire 1 C! \registro~8_combout\ $end
$var wire 1 D! \registro~7_combout\ $end
$var wire 1 E! \registro~9_combout\ $end
$var wire 1 F! \Add5~1_combout\ $end
$var wire 1 G! \registro~25_combout\ $end
$var wire 1 H! \BIN[0]~input_o\ $end
$var wire 1 I! \registro~26_combout\ $end
$var wire 1 J! \registro~27_combout\ $end
$var wire 1 K! \registro~28_combout\ $end
$var wire 1 L! \ALT_INV_registro~26_combout\ $end
$var wire 1 M! \ALT_INV_registro~23_combout\ $end
$var wire 1 N! \ALT_INV_registro~19_combout\ $end
$upscope $end
$upscope $end
$enddefinitions $end
#0
$dumpvars
0A
1B
xC
1D
1E
1F
1G
1H
1I
0j
0k
0l
0m
0n
0o
0p
0q
0r
0s
0t
0u
0v
0w
0x
0y
0z
0{
0|
1}
0~
1!!
1"!
0#!
0$!
1%!
1&!
0'!
0(!
0)!
0*!
1+!
1,!
0-!
1.!
1/!
10!
01!
02!
03!
14!
05!
16!
17!
08!
19!
0:!
1;!
0<!
0=!
1>!
0?!
0@!
0A!
0B!
0C!
0D!
0E!
0F!
1G!
0H!
0I!
1J!
0K!
1L!
0M!
0N!
0!
1"
0#
1$
0%
1&
1'
0(
0J
1K
0L
1M
0N
1O
1P
0Q
0R
0S
0T
0U
0V
0W
0X
0Y
0Z
0[
0\
0]
0^
0_
0`
0a
1b
0c
0d
0e
0f
1g
1h
0i
0)
0*
0+
0,
0-
0.
0/
00
11
02
03
04
05
06
07
08
09
0:
0;
0<
0=
1>
1?
0@
$end
#50000
1#
1%
0&
0'
1(
1Q
0P
0O
1N
1L
1'!
1)!
04!
0;!
1H!
1~
1I!
1=!
06!
1(!
0L!
1i
0,!
16!
1:!
0J!
1@
0!!
0"!
1K!
0:!
18!
1F!
0h
0g
0?
1#!
0G!
09!
1?!
0K!
0>
1N!
1f
0#!
1{
0}
1=
1v
0f
1d
0b
1a
0=
13
01
1,
#100000
1!
0$
0M
1J
1$!
0%!
0(!
1*!
0.!
11!
12!
00!
15!
1w
07!
1:!
0=!
08!
0F!
1`
19!
0>!
0I!
1F!
1+
1L!
1M!
0N!
0v
1z
1!!
0a
1e
1h
0,
14
1?
#150000
1&
0"
1O
0K
0&!
14!
0:!
1<!
1=!
1C!
0*!
01!
1@!
1A!
1B!
1D!
02!
1,!
05!
06!
1E!
1J!
1"!
1|
0w
17!
1:!
0<!
0=!
1-!
1g
1c
0`
09!
1G!
0J!
0F!
1>
12
0+
1N!
0"!
1}
0G!
1v
0g
1b
0}
1a
0>
11
0b
1,
01
#200000
0&
1"
0!
1$
1'
1P
0O
1M
1K
0J
0$!
1&!
1%!
04!
1;!
1I!
1J!
1=!
1(!
0-!
1.!
0@!
0A!
0B!
0D!
0L!
1"!
0C!
10!
19!
0?!
0,!
16!
0J!
0!!
0N!
1g
0"!
0{
0:!
1F!
18!
1G!
0E!
0h
1>
0v
0g
0d
0?
0|
1}
09!
1?!
0G!
1>!
0I!
0a
0>
03
1L!
0M!
1N!
0c
1b
0,
0}
1{
02
11
1v
0z
1!!
0b
1d
1a
0e
1h
13
01
1,
04
1?
#250000
1&
0'
0%
0(
0Q
0P
1O
0N
0)!
14!
0;!
0H!
0~
1I!
0=!
1,!
15!
0L!
0i
07!
1<!
1=!
08!
0F!
1J!
0@
0!!
1"!
1G!
19!
0>!
0I!
18!
1F!
0h
1L!
1M!
0N!
1g
0?
1}
0G!
09!
0?!
1>
0v
1z
1!!
1N!
1b
0{
0}
0a
1e
1h
11
1v
0d
0b
0,
14
1?
1a
03
01
1,
#300000
1%
1(
1!
1Q
1N
1J
1$!
1)!
1H!
1~
0,!
05!
1C!
0(!
1-!
00!
11!
1@!
1A!
1B!
1D!
1i
12!
1,!
06!
1E!
17!
0<!
0=!
0-!
10!
08!
1@
1|
1w
19!
1>!
1I!
1:!
1-!
00!
18!
0L!
0M!
0N!
1c
1`
08!
09!
1?!
0>!
0I!
0J!
12
1+
0v
0z
0!!
1L!
1M!
1N!
0"!
1{
19!
0?!
0a
0e
0h
1v
1z
1!!
0N!
0g
1d
0,
04
0?
0{
1a
1e
1h
0>
13
0v
0d
1,
14
1?
0a
03
0,
#350000
0%
0(
0!
0&
0"
0$
0#
0Q
0O
0N
0M
0L
0K
0J
0$!
0&!
0'!
0%!
0)!
04!
0H!
0~
1=!
16!
02!
0/!
0-!
0.!
10!
01!
0@!
0A!
0B!
0D!
0i
0w
0C!
00!
0F!
0:!
1>!
1I!
1K!
0@
0L!
0M!
0`
1#!
0K!
0E!
0+
0z
0!!
1f
0|
0#!
0e
0h
1=
0c
0f
04
0?
02
0=
#400000
1(
1!
1"
1$
1#
1'
1Q
1P
1M
1L
1K
1J
1$!
1&!
1'!
1%!
1;!
1H!
1~
0I!
1/!
1-!
1.!
11!
1@!
1A!
1B!
1D!
1L!
1i
1C!
12!
1@
1!!
1w
1F!
1E!
1h
1`
1?
1|
1+
1c
12
#450000
0(
0"
0Q
0K
0&!
0H!
0~
0+!
0.!
01!
0@!
0A!
0D!
0i
02!
09!
1?!
1G!
13!
0@
1N!
1}
1{
0w
1<!
0F!
1v
1b
1d
0`
0G!
0>!
1I!
1K!
1a
13
11
0+
0L!
1M!
1,
1#!
0}
1z
0!!
1f
0b
1e
0h
1=
01
14
0?
#500000
1(
0!
0#
0'
1&
1Q
0P
1O
0L
0J
0$!
0'!
14!
0;!
1H!
1~
0I!
1J!
0K!
07!
0<!
0C!
0E!
0/!
0-!
0B!
1L!
1i
0|
0#!
1"!
19!
1>!
1I!
0J!
1F!
1@
1!!
0L!
0M!
0N!
0c
0f
1g
0"!
1h
02
1>
0=
0v
0z
0!!
0g
1?
0a
0e
0h
0>
0,
04
0?
#550000
1!
1#
1'
1"
1%
1P
1N
1L
1K
1J
1$!
1&!
1'!
1)!
1;!
0I!
06!
1C!
1/!
1+!
1-!
1.!
11!
1@!
1A!
1B!
1D!
1L!
12!
03!
1E!
1:!
1!!
1|
1w
0>!
1I!
17!
0=!
1h
0L!
1M!
1c
1`
1?
1J!
0?!
12
1+
1z
0!!
0{
1"!
1e
0h
0d
1g
14
0?
03
1>
#600000
0!
0'
0P
0J
0$!
0;!
0I!
0J!
1(!
0-!
10!
01!
0@!
0A!
0B!
0D!
1L!
0"!
0E!
02!
18!
0,!
16!
1!!
0g
0w
0|
0:!
09!
1?!
1h
0>
1N!
0`
0c
1?
1{
1>!
1I!
1J!
0+
02
1v
0L!
0M!
1d
1"!
1a
13
0z
0!!
1g
1,
0e
0h
1>
04
0?
#650000
0#
0"
0%
0&
0O
0N
0L
0K
0&!
0'!
0)!
04!
1=!
1E!
1,!
15!
0C!
0(!
0+!
0.!
0/!
1|
13!
05!
0E!
07!
1:!
0=!
00!
08!
0F!
0J!
1c
0"!
0|
19!
0>!
0I!
1F!
17!
0:!
1<!
1=!
12
1L!
1M!
0N!
0g
0c
1J!
0?!
0F!
0>
02
0v
1z
1!!
0{
1"!
0a
1e
1h
0d
1g
0,
14
1?
03
1>
#700000
1"
1!
0(
0Q
1K
1J
1$!
1&!
0H!
0~
1/!
1(!
1-!
11!
0i
12!
09!
1?!
0,!
03!
06!
0@
1N!
1{
1w
1:!
0<!
0-!
1v
1d
1`
19!
0?!
1>!
1I!
0J!
1K!
1a
13
1+
0L!
0M!
0N!
1,
1#!
0"!
0{
0v
0z
0!!
1f
0g
0d
0a
0e
0h
0>
1=
03
0,
04
0?
#750000
0"
0!
1(
1&
1'
1Q
1P
1O
0K
0J
0$!
0&!
14!
1;!
1H!
1~
0>!
0K!
0=!
0/!
0(!
01!
1M!
1i
0#!
02!
1,!
13!
16!
1J!
1@
1z
0f
1"!
0w
07!
0:!
1=!
1e
0=
1g
0`
14
1>!
0I!
0J!
1?!
1F!
1>
0+
1L!
0M!
1{
0"!
0z
1!!
1d
0g
0e
1h
13
0>
04
1?
#800000
1"
1!
0(
0&
0'
1%
0$
0Q
0P
0O
1N
0M
1K
1J
1$!
1&!
0%!
1)!
04!
0;!
0H!
0~
1I!
17!
1<!
06!
1/!
1(!
1+!
1-!
11!
0L!
0i
12!
09!
1G!
0,!
03!
16!
07!
0<!
0=!
0>!
0I!
1J!
0F!
0@
0!!
1L!
1M!
1N!
1"!
1}
1w
0G!
1>!
1I!
0?!
17!
1=!
0-!
1F!
0h
1v
1z
1!!
0L!
0M!
1g
1b
1`
0?
0{
0}
19!
0J!
0F!
1a
1e
1h
1>
11
1+
0z
0!!
0N!
0d
0b
1,
14
1?
0"!
0e
0h
03
01
0v
0g
04
0?
0a
0>
0,
#850000
0!
1(
1&
1'
0%
1$
1#
1Q
1P
1O
0N
1M
1L
0J
0$!
1'!
1%!
0)!
14!
1;!
1H!
1~
0I!
0=!
1,!
15!
1.!
01!
1L!
1i
02!
07!
1<!
1=!
10!
1F!
1J!
1@
1!!
1"!
0w
0>!
1I!
0J!
1K!
1?!
18!
1h
0L!
1M!
1g
0`
1?
1{
1#!
0"!
09!
0?!
1>
0+
1z
0!!
1N!
1d
1f
0g
0{
1e
0h
13
0>
1=
1v
0d
14
0?
1a
03
1,
#900000
0#
0L
0'!
0(!
05!
17!
0<!
0=!
1>!
0I!
1J!
0K!
08!
1?!
0F!
1L!
0M!
1{
0#!
1"!
1G!
19!
0?!
0z
1!!
0N!
1d
0f
1g
0{
1}
0e
1h
13
1>
0=
0v
0d
1b
04
1?
0a
03
11
0,
#950000
0(
0'
1%
0$
0"
0Q
0P
1N
0M
0K
0&!
0%!
1)!
0;!
0H!
0~
1I!
06!
1C!
0.!
0/!
0L!
0i
00!
1:!
0@
0!!
0>!
0I!
0J!
0G!
0h
1L!
1M!
0?
0}
0"!
1z
1!!
0b
0g
1e
1h
01
0>
14
1?
